{
    "org.apache.cordova.statusbar": {
        "source": {
            "type": "registry",
            "id": "org.apache.cordova.statusbar"
        },
        "is_top_level": true,
        "variables": {}
    },
    "cordova-plugin-statusbar": {
        "source": {
            "type": "registry",
            "id": "cordova-plugin-statusbar@1.0.1"
        },
        "is_top_level": true,
        "variables": {}
    },
    "cordova-plugin-whitelist": {
        "source": {
            "type": "registry",
            "id": "cordova-plugin-whitelist@1.0.0"
        },
        "is_top_level": true,
        "variables": {}
    },
    "cordova-plugin-network-information": {
        "source": {
            "type": "registry",
            "id": "cordova-plugin-network-information@1.0.1"
        },
        "is_top_level": true,
        "variables": {}
    },
    "cordova-plugin-websql": {
        "source": {
            "type": "registry",
            "id": "cordova-plugin-websql@0.0.10"
        },
        "is_top_level": true,
        "variables": {}
    },
    "cordova-plugin-dialogs": {
        "source": {
            "type": "registry",
            "id": "cordova-plugin-dialogs@1.1.1"
        },
        "is_top_level": true,
        "variables": {}
    },
    "cordova-plugin-x-socialsharing": {
        "source": {
            "type": "registry",
            "id": "cordova-plugin-x-socialsharing"
        },
        "is_top_level": true,
        "variables": {}
    },
    "de.appplant.cordova.plugin.local-notification": {
        "source": {
            "type": "git",
            "url": "https://github.com/katzer/cordova-plugin-local-notifications",
            "subdir": "."
        },
        "is_top_level": true,
        "variables": {}
    },
    "cordova-plugin-device": {
        "source": {
            "type": "registry",
            "id": "cordova-plugin-device"
        },
        "is_top_level": false,
        "variables": {}
    },
    "cordova-plugin-android-support-v4": {
        "source": {
            "type": "registry",
            "id": "cordova-plugin-android-support-v4"
        },
        "is_top_level": false,
        "variables": {}
    },
    "org.apache.cordova.vibration": {
        "source": {
            "type": "registry",
            "id": "org.apache.cordova.vibration"
        },
        "is_top_level": true,
        "variables": {}
    },
    "cordova-plugin-geolocation": {
        "source": {
            "type": "registry",
            "id": "cordova-plugin-geolocation@2.0.0"
        },
        "is_top_level": true,
        "variables": {}
    }
}